{"page":1,"total_results":19832,"total_pages":992,"results":[{"vote_count":292,"id":420818,"video":false,"vote_average":6.8,"title":"The Lion King","popularity":502.676,"poster_path":"\/dzBtMocZuJbjLOXvrl4zGYigDzh.jpg","original_language":"en","original_title":"The Lion King","genre_ids":[12,16,10751,18,28],"backdrop_path":"\/1TUg5pO1VZ4B0Q1amk3OlXvlpXV.jpg","adult":false,"overview":"Simba idolises his father, King Mufasa, and takes to heart his own royal destiny. But not everyone in the kingdom celebrates the new cub's arrival. Scar, Mufasa's brother—and former heir to the throne—has plans of his own. The battle for Pride Rock is ravaged with betrayal, tragedy and drama, ultimately resulting in Simba's exile. With help from a curious pair of newfound friends, Simba will have to figure out how to grow up and take back what is rightfully his.","release_date":"2019-07-12"},{"vote_count":2038,"id":429617,"video":false,"vote_average":7.8,"title":"Spider-Man: Far from Home","popularity":392.521,"poster_path":"\/rjbNpRMoVvqHmhmksbokcyCr7wn.jpg","original_language":"en","original_title":"Spider-Man: Far from Home","genre_ids":[28,12,878],"backdrop_path":"\/dihW2yTsvQlust7mSuAqJDtqW7k.jpg","adult":false,"overview":"Peter Parker and his friends go on a summer trip to Europe. However, they will hardly be able to rest - Peter will have to agree to help Nick Fury uncover the mystery of creatures that cause natural disasters and destruction throughout the continent.","release_date":"2019-06-28"},{"vote_count":2601,"id":399579,"video":false,"vote_average":6.8,"title":"Alita: Battle Angel","popularity":174.137,"poster_path":"\/xRWht48C2V8XNfzvPehyClOvDni.jpg","original_language":"en","original_title":"Alita: Battle Angel","genre_ids":[28,878,53,12],"backdrop_path":"\/8RKBHHRqOMOLh5qW3sS6TSFTd8h.jpg","adult":false,"overview":"When Alita awakens with no memory of who she is in a future world she does not recognize, she is taken in by Ido, a compassionate doctor who realizes that somewhere in this abandoned cyborg shell is the heart and soul of a young woman with an extraordinary past.","release_date":"2019-01-31"},{"vote_count":2507,"id":287947,"video":false,"vote_average":7.1,"title":"Shazam!","popularity":162.684,"poster_path":"\/xnopI5Xtky18MPhK40cZAGAOVeV.jpg","original_language":"en","original_title":"Shazam!","genre_ids":[28,35,14],"backdrop_path":"\/bi4jh0Kt0uuZGsGJoUUfqmbrjQg.jpg","adult":false,"overview":"A boy is given the ability to become an adult superhero in times of need with a single magic word.","release_date":"2019-03-23"},{"vote_count":1428,"id":301528,"video":false,"vote_average":7.7,"title":"Toy Story 4","popularity":141.537,"poster_path":"\/w9kR8qbmQ01HwnvK4alvnQ2ca0L.jpg","original_language":"en","original_title":"Toy Story 4","genre_ids":[12,16,35,10751],"backdrop_path":"\/m67smI1IIMmYzCl9axvKNULVKLr.jpg","adult":false,"overview":"Woody has always been confident about his place in the world and that his priority is taking care of his kid, whether that's Andy or Bonnie. But when Bonnie adds a reluctant new toy called \"Forky\" to her room, a road trip adventure alongside old and new friends will show Woody how big the world can be for a toy.","release_date":"2019-06-19"},{"vote_count":1,"id":582302,"video":false,"vote_average":3,"title":"Pulled to Hell","popularity":134.928,"poster_path":"\/8AIJr9U3uvKn9vu3CNa9KmNy0do.jpg","original_language":"en","original_title":"Pulled to Hell","genre_ids":[27],"backdrop_path":null,"adult":false,"overview":"Charles, and Kyle are three private investigators that specialize in missing persons cases. Mickey and her team get in way over there heads when they cross a serial killer who has three very nasty pets that have a taste for human flesh. The team must do what the can to stay alive and to save the killer's next prey before its to late.","release_date":"2019-02-12"},{"vote_count":21,"id":566555,"video":false,"vote_average":5,"title":"Detective Conan: The Fist of Blue Sapphire","popularity":115.247,"poster_path":"\/86Y6qM8zTn3PFVfCm9J98Ph7JEB.jpg","original_language":"ja","original_title":"名探偵コナン 紺青の拳（フィスト）","genre_ids":[16,28,18,9648,35],"backdrop_path":"\/wf6VDSi4aFCZfuD8sX8JAKLfJ5m.jpg","adult":false,"overview":"23rd movie in the \"Detective Conan\" franchise.","release_date":"2019-04-12"},{"vote_count":1545,"id":458156,"video":false,"vote_average":7.1,"title":"John Wick: Chapter 3 – Parabellum","popularity":112.991,"poster_path":"\/ziEuG1essDuWuC5lpWUaw1uXY2O.jpg","original_language":"en","original_title":"John Wick: Chapter 3 – Parabellum","genre_ids":[80,28,53],"backdrop_path":"\/vVpEOvdxVBP2aV166j5Xlvb5Cdc.jpg","adult":false,"overview":"Super-assassin John Wick returns with a $14 million price tag on his head and an army of bounty-hunting killers on his trail. After killing a member of the shadowy international assassin’s guild, the High Table, John Wick is excommunicado, but the world’s most ruthless hit men and women await his every turn.","release_date":"2019-05-15"},{"vote_count":682,"id":456740,"video":false,"vote_average":5,"title":"Hellboy","popularity":112.586,"poster_path":"\/bk8LyaMqUtaQ9hUShuvFznQYQKR.jpg","original_language":"en","original_title":"Hellboy","genre_ids":[28,12,14,27,878],"backdrop_path":"\/5BkSkNtfrnTuKOtTaZhl8avn4wU.jpg","adult":false,"overview":"Hellboy comes to England, where he must defeat Nimue, Merlin's consort and the Blood Queen. But their battle will bring about the end of the world, a fate he desperately tries to turn away.","release_date":"2019-04-10"},{"vote_count":6397,"id":299537,"video":false,"vote_average":7,"title":"Captain Marvel","popularity":108.42,"poster_path":"\/AtsgWhDnHTq68L0lLsUrCnM7TjG.jpg","original_language":"en","original_title":"Captain Marvel","genre_ids":[28,12,878],"backdrop_path":"\/w2PMyoyLU22YvrGK3smVM9fW1jj.jpg","adult":false,"overview":"The story follows Carol Danvers as she becomes one of the universe’s most powerful heroes when Earth is caught in the middle of a galactic war between two alien races. Set in the 1990s, Captain Marvel is an all-new adventure from a previously unseen period in the history of the Marvel Cinematic Universe.","release_date":"2019-03-06"},{"vote_count":7745,"id":920,"video":false,"vote_average":6.7,"title":"Cars","popularity":99.786,"poster_path":"\/jpfkzbIXgKZqCZAkEkFH2VYF63s.jpg","original_language":"en","original_title":"Cars","genre_ids":[16,12,35,10751],"backdrop_path":"\/a1MlbLBk5Sy6YvMbSuKfwGlDVlb.jpg","adult":false,"overview":"Lightning McQueen, a hotshot rookie race car driven to succeed, discovers that life is about the journey, not the finish line, when he finds himself unexpectedly detoured in the sleepy Route 66 town of Radiator Springs. On route across the country to the big Piston Cup Championship in California to compete against two seasoned pros, McQueen gets to know the town's offbeat characters.","release_date":"2006-06-08"},{"vote_count":182,"id":459992,"video":false,"vote_average":6.9,"title":"Long Shot","popularity":98.501,"poster_path":"\/m2ttWZ8rMRwIMT7zA48Jo6mTkDS.jpg","original_language":"en","original_title":"Long Shot","genre_ids":[35,10749],"backdrop_path":"\/A7jNTrY1nVRhZed4KuwyhohpKrm.jpg","adult":false,"overview":"When Fred Flarsky reunites with and charms his first crush, Charlotte Field—one of the most influential women in the world. As Charlotte prepares to make a run for the Presidency, she hires Fred as her speechwriter and sparks fly.","release_date":"2019-05-02"},{"vote_count":7786,"id":299534,"video":false,"vote_average":8.4,"title":"Avengers: Endgame","popularity":95.778,"poster_path":"\/or06FN3Dka5tukK1e9sl16pB3iy.jpg","original_language":"en","original_title":"Avengers: Endgame","genre_ids":[12,878,28],"backdrop_path":"\/7RyHsO4yDXtBv1zUU3mTpHeQ0d5.jpg","adult":false,"overview":"After the devastating events of Avengers: Infinity War, the universe is in ruins due to the efforts of the Mad Titan, Thanos. With the help of remaining allies, the Avengers must assemble once more in order to undo Thanos' actions and restore order to the universe once and for all, no matter what consequences may be in store.","release_date":"2019-04-24"},{"vote_count":2275,"id":420817,"video":false,"vote_average":7.1,"title":"Aladdin","popularity":88.136,"poster_path":"\/3iYQTLGoy7QnjcUYRJy4YrAgGvp.jpg","original_language":"en","original_title":"Aladdin","genre_ids":[12,14,10749,35,10751],"backdrop_path":"\/v4yVTbbl8dE1UP2dWu5CLyaXOku.jpg","adult":false,"overview":"A kindhearted street urchin named Aladdin embarks on a magical adventure after finding a lamp that releases a wisecracking genie while a power-hungry Grand Vizier vies for the same lamp that has the power to make their deepest wishes come true.","release_date":"2019-05-22"},{"vote_count":69,"id":511987,"video":false,"vote_average":5.9,"title":"Crawl","popularity":87.657,"poster_path":"\/mKxpYRIrCZLxZjNqpocJ2RdQW8v.jpg","original_language":"en","original_title":"Crawl","genre_ids":[53,28,27],"backdrop_path":"\/2cAce3oD0Hh7f5XxuXmNXa1WiuZ.jpg","adult":false,"overview":"While struggling to save her father during a Category 5 hurricane, a young woman finds herself trapped inside a flooding house and fighting for her life against Florida’s most savage and feared predators.","release_date":"2019-07-11"},{"vote_count":14437,"id":299536,"video":false,"vote_average":8.3,"title":"Avengers: Infinity War","popularity":80.924,"poster_path":"\/7WsyChQLEftFiDOVTGkv3hFpyyt.jpg","original_language":"en","original_title":"Avengers: Infinity War","genre_ids":[12,28,14],"backdrop_path":"\/bOGkgRGdhrBYJSLpXaxhXVstddV.jpg","adult":false,"overview":"As the Avengers and their allies have continued to protect the world from threats too large for any one hero to handle, a new danger has emerged from the cosmic shadows: Thanos. A despot of intergalactic infamy, his goal is to collect all six Infinity Stones, artifacts of unimaginable power, and use them to inflict his twisted will on all of reality. Everything the Avengers have fought for has led up to this moment - the fate of Earth and existence itself has never been more uncertain.","release_date":"2018-04-25"},{"vote_count":1570,"id":329996,"video":false,"vote_average":6.5,"title":"Dumbo","popularity":77.252,"poster_path":"\/A7XkpLfNH0El2yyDLc4b0KLAKvE.jpg","original_language":"en","original_title":"Dumbo","genre_ids":[12,10751,14],"backdrop_path":"\/5tFt6iuGnKapHl5tw0X0cKcnuVo.jpg","adult":false,"overview":"A young elephant, whose oversized ears enable him to fly, helps save a struggling circus, but when the circus plans a new venture, Dumbo and his friends discover dark secrets beneath its shiny veneer.","release_date":"2019-03-27"},{"vote_count":1,"id":66510,"video":false,"vote_average":3,"title":"Madrasi","popularity":76.504,"poster_path":"\/4F9Y9C5tQqoJbTQfJxLuDiqSOWI.jpg","original_language":"en","original_title":"மதராஸி","genre_ids":[],"backdrop_path":"\/oa1doNS6XnH1ix5kOp1ITyAFHFe.jpg","adult":false,"overview":"Kasi (Arjun) comes to Mumbai to track his parents' killers. He is successful in finding the first two. In order to find the third one he joins a goon Ravi Bhai (Raj Kapoor). This Ravi Bhai is in loggerheads with his own brother, Mani Bhai (Fefsi Vijayn). Mani Bhai runs another gang and the leading goonda in this gang is Siva (Jagapati Babu). Once upon a time in some Jail, Siva and Kasi were good friends. But now they are thirsty for each other's blood. They unite finally when their loved ones are killed.They plot to kill sivas brother by killing vedhika and divert Arjun. Arjun and Vedhika die in the end.","release_date":"2006-07-10"},{"vote_count":0,"id":511161,"video":false,"vote_average":0,"title":"Vennila Kabaddi Kuzhu 2","popularity":76.289,"poster_path":"\/m3KwlHlh24fssAh11EqkCwlTJiX.jpg","original_language":"ta","original_title":"வெண்ணிலா கபடிகுழு 2","genre_ids":[18],"backdrop_path":"\/yzupY5G8ydZ4BxsScxB1UchL5vV.jpg","adult":false,"overview":"","release_date":"2019-07-12"},{"vote_count":457,"id":480414,"video":false,"vote_average":5.6,"title":"The Curse of La Llorona","popularity":67.85,"poster_path":"\/jhZlXSnFUpNiLAek9EkPrtLEWQI.jpg","original_language":"en","original_title":"The Curse of La Llorona","genre_ids":[53,27,9648],"backdrop_path":"\/9p5BuzUNcvCltQAIiDLILEsH0dk.jpg","adult":false,"overview":"A social worker dealing with the disappearance of two children fears for her own family after beginning the investigation.","release_date":"2019-04-17"}]}